…
Now I'd like to put these into a long data frame so I can plot them more easily. In the process, I separate the `pass`/`justpass` label into its own column. 


```r
# see https://gist.github.com/aammd/9ae2f5cce9afd799bafb
succRateWide <- enframe(allSuccRates) %>% 
  unnest(cols = value) %>% 
  separate(col = name, into = c("outcome", "name"), sep = "[.]")
succRateWide
```

```
## # A tibble: 60 x 13
##    outcome name  Layer     N Week1 Week2 Week3 Week4 Week5 Week6 Week7 Guessing
##    <chr>   <chr> <chr> <int> <dbl> <dbl> <dbl> <dbl> <dbl> <dbl> <dbl>    <dbl>
##  1 pass    logR~ PS      142 0.810 0.859 0.845 0.838 0.852 0.845 0.845    0.831
##  2 pass    logR~ CD      142 0.803 0.803 0.831 0.824 0.845 0.838 0.817    0.831
##  3 pass    logR~ ICS     142 0.824 0.831 0.859 0.845 0.845 0.838 0.852    0.831
##  4 pass    logR~ PS      166 0.789 0.777 0.783 0.777 0.789 0.783 0.795    0.771
##  5 pass    logR~ CD      166 0.783 0.771 0.783 0.771 0.783 0.789 0.795    0.771
##  6 pass    logR~ ICS     166 0.795 0.771 0.765 0.783 0.771 0.789 0.801    0.771
##  7 pass    logR~ PS      166 0.789 0.777 0.783 0.795 0.783 0.789 0.789    0.771
##  8 pass    logR~ CD      166 0.789 0.783 0.795 0.801 0.795 0.783 0.777    0.771
##  9 pass    logR~ ICS     166 0.789 0.771 0.771 0.783 0.783 0.801 0.807    0.771
## 10 pass    lda   PS      142 0.817 0.845 0.831 0.838 0.838 0.831 0.831    0.831
## # ... with 50 more rows, and 1 more variable: nK <int>
```
…
```r
succRateLong <- succRateWide %>% 
  pivot_longer(cols = starts_with("Week"), names_to = "Week", names_prefix = "Week", 
               names_transform = list(Week = as.integer), values_to = "succRate") %>% 
  relocate(Week, .before = N)
# Factor-ize and reorder
succRateLong$outcome <- factor(succRateLong$outcome, levels = c("pass", "justpass"))
succRateLong$method <- factor(succRateLong$name)  
succRateLong$method <- fct_relevel(succRateLong$method, 
                                   levels(succRateLong$method)[c(7, 9, 8, 4, 6, 5, 10, 1, 3, 2)])
succRateLong
```

```
## # A tibble: 420 x 9
##    outcome name   Layer  Week     N Guessing    nK succRate method
##    <fct>   <chr>  <chr> <int> <int>    <dbl> <int>    <dbl> <fct> 
##  1 pass    logReg PS        1   142    0.831    NA    0.810 logReg
##  2 pass    logReg PS        2   142    0.831    NA    0.859 logReg
##  3 pass    logReg PS        3   142    0.831    NA    0.845 logReg
##  4 pass    logReg PS        4   142    0.831    NA    0.838 logReg
##  5 pass    logReg PS        5   142    0.831    NA    0.852 logReg
##  6 pass    logReg PS        6   142    0.831    NA    0.845 logReg
##  7 pass    logReg PS        7   142    0.831    NA    0.845 logReg
##  8 pass    logReg CD        1   142    0.831    NA    0.803 logReg
##  9 pass    logReg CD        2   142    0.831    NA    0.803 logReg
## 10 pass    logReg CD        3   142    0.831    NA    0.831 logReg
## # ... with 410 more rows
```
…
