…
Because of the data set size, we'll use a "jackknife" approach, where each observation is removed, the remaining observations are used to predict the missing one, and then we repeat until we've checked them all. 

Turn the long data frames into lists of single (weekly) data frames: 


```r
centPS <- dfPS %>% group_split(Week)
centCD <- dfCD %>% group_split(Week)
centICS <- dfICS %>% group_split(Week)

centPS[[1]]
```

```
## # A tibble: 166 x 17
##    Week  name  grade gender   age cohort   sog fci_pre fci_pre_0 fci_pre_s
##    <fct> <chr> <int>  <int> <int>  <int> <dbl>   <dbl>     <dbl>     <dbl>
##  1 1     Pers~     2      1    19      3     6      17        17        17
##  2 1     Pers~    -3      1    20     10    NA      NA         0         6
##  3 1     Pers~     0      1    22     10     9      NA         0        15
##  4 1     Pers~     4      1    19      6    20      28        28        28
##  5 1     Pers~     2      1    27      1     7      26        26        26
##  6 1     Pers~     4      1    20      2     0      18        18        18
##  7 1     Pers~     0      1    19     10    11      NA         0        15
##  8 1     Pers~     7      1    20      2    NA      15        15        15
##  9 1     Pers~    12      1   100      4    NA      26        26        26
## 10 1     Pers~     7      1    20      3    11      13        13        13
## # ... with 156 more rows, and 7 more variables: fci_pre_c <dbl>, pass <fct>,
## #   justpass <fct>, Week.1 <int>, PageRank <dbl>, tarEnt <dbl>, Hide <dbl>
```
…
