…
As I recall, we had decided to skip the half-training, half-test approach because the data set isn't large enough to support that. If we stick with the "jackknife" approach, I can port in my old code.

The first thing I need is a list of data frames, rather than a single long data frame. Tidyverse to the rescue:


```r
centPS <- dfPS %>% group_split(Week)
centCD <- dfCD %>% group_split(Week)
centICS <- dfICS %>% group_split(Week)

centPS[[1]]
```

```
## # A tibble: 166 x 17
##    Week  name  grade gender   age cohort   sog fci_pre fci_pre_0 fci_pre_s
##    <fct> <chr> <int>  <int> <int>  <int> <dbl>   <dbl>     <dbl>     <dbl>
##  1 1     Pers~     2      1    19      3     6      17        17        17
##  2 1     Pers~    -3      1    20     10    NA      NA         0         6
##  3 1     Pers~     0      1    22     10     9      NA         0        15
##  4 1     Pers~     4      1    19      6    20      28        28        28
##  5 1     Pers~     2      1    27      1     7      26        26        26
##  6 1     Pers~     4      1    20      2     0      18        18        18
##  7 1     Pers~     0      1    19     10    11      NA         0        15
##  8 1     Pers~     7      1    20      2    NA      15        15        15
##  9 1     Pers~    12      1   100      4    NA      26        26        26
## 10 1     Pers~     7      1    20      3    11      13        13        13
## # ... with 156 more rows, and 7 more variables: fci_pre_c <dbl>, pass <fct>,
## #   justpass <fct>, Week.1 <int>, PageRank <dbl>, tarEnt <dbl>, Hide <dbl>
```

```r
centPS[[2]]
```

```
## # A tibble: 166 x 17
##    Week  name  grade gender   age cohort   sog fci_pre fci_pre_0 fci_pre_s
##    <fct> <chr> <int>  <int> <int>  <int> <dbl>   <dbl>     <dbl>     <dbl>
##  1 2     Pers~     2      1    19      3     6      17        17        17
##  2 2     Pers~    -3      1    20     10    NA      NA         0         6
##  3 2     Pers~     0      1    22     10     9      NA         0        15
##  4 2     Pers~     4      1    19      6    20      28        28        28
##  5 2     Pers~     2      1    27      1     7      26        26        26
##  6 2     Pers~     4      1    20      2     0      18        18        18
##  7 2     Pers~     0      1    19     10    11      NA         0        15
##  8 2     Pers~     7      1    20      2    NA      15        15        15
##  9 2     Pers~    12      1   100      4    NA      26        26        26
## 10 2     Pers~     7      1    20      3    11      13        13        13
## # ... with 156 more rows, and 7 more variables: fci_pre_c <dbl>, pass <fct>,
## #   justpass <fct>, Week.1 <int>, PageRank <dbl>, tarEnt <dbl>, Hide <dbl>
```
…
